------------------------
NUMBER COLUMNS
------------------------
+----------------+----------+
| TOTAL_COLUMNS= | COUNT(*) |
+----------------+----------+
| TOTAL_COLUMNS= |        6 |
+----------------+----------+
------------------------
+---------------+----------+
| TOTAL_RECORD= | COUNT(*) |
+---------------+----------+
| TOTAL_RECORD= |       24 |
+---------------+----------+
------------------------
SHOW RECORD PER SOURCE
------------------------
+----------------------------+----------+
| STG_SOURCE_FILE            | COUNT(*) |
+----------------------------+----------+
| Contract_type_19990101.csv |       24 |
+----------------------------+----------+
------------------------
RECORD NULL or BLANK
------------------------
+---------------+---------------+-------------+---------------+----------------------------+---------------------+
| CONTRACT_TYPE | CONTRACT_NAME | DESCRIPTION | STG_SOURCE_DT | STG_SOURCE_FILE            | STG_LOAD_DT         |
+---------------+---------------+-------------+---------------+----------------------------+---------------------+
| P             | Permanent     |             | 19990101      | Contract_type_19990101.csv | 2020-01-25 20:20:17 |
| P             |               |             | 19990101      | Contract_type_19990101.csv | 2020-01-25 20:20:17 |
| P             | Permanent     |             | 19990101      | Contract_type_19990101.csv | 2020-01-25 20:20:17 |
|               | NULL          | NULL        | 19990101      | Contract_type_19990101.csv | 2020-01-25 20:20:17 |
|               | NULL          | NULL        | 19990101      | Contract_type_19990101.csv | 2020-01-25 20:20:17 |
|               |               | NULL        | 19990101      | Contract_type_19990101.csv | 2020-01-25 20:20:17 |
+---------------+---------------+-------------+---------------+----------------------------+---------------------+
------------------------
ALL ROW DUPLICATE
------------------------
+-----------+---------------+---------------------------------+------------------------------------+
| RECNO_DUP | CONTRACT_TYPE | CONTRACT_NAME                   | DESCRIPTION                        |
+-----------+---------------+---------------------------------+------------------------------------+
|         2 |               | NULL                            | NULL                               |
|         4 | C             | Contract                        | Employee Contract                  |
|         2 | P             | Permanent                       |                                    |
|         2 | P             | Permanent                       | Employee Permanent                 |
|         2 | P             | Permanent                       | Employee Permanent ทดสอล           |
|         3 | P             | ทดสอบ ทดสอบ                     | จริง ๆ น่ะ                         |
+-----------+---------------+---------------------------------+------------------------------------+
